--------------------------------------------------------
CCEE - (Reading, MCQ, Interview Q's) - Remainder time ********************

-------------------------------------
Lecture - (3 hrs +- 30min)

-------------------------------------
Project - ( 1.5 hrs +- 15min )

-------------------------------------
Practice ( HW, HackerRank ) - 2 hrs

-------------------------------------